"연령대","생년","회원수"
"90","1927","1"
"90","1928","3"
"90","1929","4"
"90","1930","8"
"90","1931","3"
"80","1932","8"
"80","1933","8"
"80","1934","11"
"80","1935","8"
"80","1936","15"
"80","1937","27"
"80","1938","27"
"80","1939","45"
"80","1940","49"
"80","1941","61"
"70","1942","80"
"70","1943","75"
"70","1944","75"
"70","1945","76"
"70","1946","111"
"70","1947","159"
"70","1948","152"
"70","1949","165"
"70","1950","169"
"70","1951","137"
"60","1952","251"
"60","1953","264"
"60","1954","287"
"60","1955","344"
"60","1956","391"
"60","1957","430"
"60","1958","456"
"60","1959","511"
"60","1960","581"
"60","1961","638"
"50","1962","700"
"50","1963","719"
"50","1964","769"
"50","1965","829"
"50","1966","811"
"50","1967","1046"
"50","1968","1272"
"50","1969","1401"
"50","1970","1619"
"50","1971","1860"
"40","1972","1933"
"40","1973","1975"
"40","1974","2080"
"40","1975","2036"
"40","1976","2071"
"40","1977","2195"
"40","1978","2050"
"40","1979","2323"
"40","1980","2461"
"40","1981","2590"
"30","1982","2411"
"30","1983","2135"
"30","1984","2012"
"30","1985","2122"
"30","1986","2133"
"30","1987","2200"
"30","1988","2310"
"30","1989","2340"
"30","1990","2300"
"30","1991","2460"
"20","1992","2355"
"20","1993","2194"
"20","1994","2121"
"20","1995","1958"
"20","1996","1600"
"20","1997","1399"
"20","1998","1226"
"20","1999","955"
"20","2000","819"
"20","2001","442"
"10","2002","338"
"10","2003","363"
"10","2004","368"
"10","2005","243"
"10","2006","165"
"10","2007","215"
"10","2008","210"
"10","2009","208"
"10","2010","147"
"10","2011","106"
"0","2012","96"
"0","2013","40"
"0","2014","20"
"0","2015","16"
"0","2016","8"
"0","2017","2"
"0","2018","4"