"강좌코드","강좌명","기관코드","기관명","난이도코드","난이도명","수강신청 접수시작일","수강신청 접수종료일","수강신청 접수시작시간","수강신청 접수마감시간","교육시작일","교육종료일","교육시작시간","교육종료시간","교육요일(월)","교육요일(화)","교육요일(수)","교육요일(목)","교육요일(금)","교육요일(토)","교육요일(일)","모집정원","예비자모집인원","수강료(원)","접수방법(방문접수여부Y,N)","접수방법(온라인접수여부Y,N)","상세정보 주소"
"C100112300","[청년대상 무료특강]전직자와 함께하는 직무멘토링(취업 멘토링&코칭)_6월","25","중랑여성인력개발센터","N","관계없음","20200611","20200629","09:00","12:00","20200630","20200630","16:00","18:00","","Y","","","","Y","","13","0","0","N","N","https://jungnang.seoulwomanup.or.kr/jungnang/edu/selectEduProgram.do?sch_class_code=C100112300"
"C100112299","[청년대상 무료특강]전직자와 함께하는 직무멘토링(대기업 비서)_6월","25","중랑여성인력개발센터","N","관계없음","20200611","20200629","09:00","12:00","20200630","20200630","13:30","15:30","","Y","","","","Y","","13","0","0","N","N","https://jungnang.seoulwomanup.or.kr/jungnang/edu/selectEduProgram.do?sch_class_code=C100112299"
"C100112298","[청년대상 무료특강]전직자와 함께하는 직무멘토링(대기업 영업관리직)_6월","25","중랑여성인력개발센터","N","관계없음","20200611","20200629","09:00","12:00","20200630","20200630","10:30","12:30","","Y","","","","Y","","13","0","0","N","N","https://jungnang.seoulwomanup.or.kr/jungnang/edu/selectEduProgram.do?sch_class_code=C100112298"
"C100112288","[자부담결제용/일반]컴퓨터활용능력 2급_6월","25","중랑여성인력개발센터","C","자격","20200103","20200616","09:00","16:00","20200615","20200805","19:00","22:00","Y","Y","Y","Y","Y","Y","","15","0","143880","N","Y","https://jungnang.seoulwomanup.or.kr/jungnang/edu/selectEduProgram.do?sch_class_code=C100112288"
"C100112262","[청년대상 무료특강]호감 가는 면접 메이크업_7월","25","중랑여성인력개발센터","N","관계없음","20200121","20200706","09:00","22:00","20200708","20200708","10:00","12:00","Y","Y","Y","Y","Y","Y","","15","0","0","N","N","https://jungnang.seoulwomanup.or.kr/jungnang/edu/selectEduProgram.do?sch_class_code=C100112262"
"C100112255","[지도사]실버건강노래지도사_7월(오후반)","25","중랑여성인력개발센터","N","관계없음","20191120","20200706","09:00","12:00","20200707","20200825","15:00","18:00","Y","Y","Y","Y","Y","Y","","12","0","100000","Y","Y","https://jungnang.seoulwomanup.or.kr/jungnang/edu/selectEduProgram.do?sch_class_code=C100112255"
"C100112252","[지도사]실버건강노래지도사_7월(야간반)","25","중랑여성인력개발센터","N","관계없음","20191120","20200706","09:00","12:00","20200707","20200825","19:00","22:00","Y","Y","Y","Y","Y","Y","","12","0","100000","Y","Y","https://jungnang.seoulwomanup.or.kr/jungnang/edu/selectEduProgram.do?sch_class_code=C100112252"
"C100112247","[재직자통합훈련]ITQ자격증취득(한글엑셀파워포인트)_8월","25","중랑여성인력개발센터","C","자격","20190813","20200812","09:00","16:00","20200811","20201105","19:00","22:00","Y","Y","Y","Y","Y","Y","","15","5","431640","N","N","https://jungnang.seoulwomanup.or.kr/jungnang/edu/selectEduProgram.do?sch_class_code=C100112247"
"C100112232","[돌봄]영유아 돌봄이(베이비시터)오후_7월","25","중랑여성인력개발센터","J","초급","20200211","20200703","09:00","12:00","20200706","20200717","14:00","18:00","Y","Y","Y","Y","Y","Y","","30","0","100000","Y","Y","https://jungnang.seoulwomanup.or.kr/jungnang/edu/selectEduProgram.do?sch_class_code=C100112232"
"C100112231","[지도사]베이비마사지 지도사_8월","25","중랑여성인력개발센터","N","관계없음","20200221","20200611","09:00","18:00","20200801","20200808","09:00","18:00","Y","Y","Y","Y","Y","Y","","15","0","70000","Y","Y","https://jungnang.seoulwomanup.or.kr/jungnang/edu/selectEduProgram.do?sch_class_code=C100112231"
"C100112228","[자부담결제용/일반]한식조리기능사 취득(실기)_6월(야간)","25","중랑여성인력개발센터","C","자격","20200103","20200625","09:00","23:00","20200624","20200828","19:00","22:00","Y","Y","Y","Y","Y","Y","","15","12","227850","N","Y","https://jungnang.seoulwomanup.or.kr/jungnang/edu/selectEduProgram.do?sch_class_code=C100112228"
"C100112162","[자부담결제용/장려금]엑셀실무활용_6월","25","중랑여성인력개발센터","N","관계없음","20190814","20200615","09:00","09:00","20200612","20200828","19:00","22:00","Y","Y","Y","Y","Y","Y","","15","0","59360","N","Y","https://jungnang.seoulwomanup.or.kr/jungnang/edu/selectEduProgram.do?sch_class_code=C100112162"
"C100112161","[자부담결제용/일반]엑셀실무활용_6월","25","중랑여성인력개발센터","N","관계없음","20190814","20200615","09:00","09:00","20200612","20200828","19:00","22:00","Y","Y","Y","Y","Y","Y","","15","0","107910","N","Y","https://jungnang.seoulwomanup.or.kr/jungnang/edu/selectEduProgram.do?sch_class_code=C100112161"
"C100112147","[청년대상 무료특강]강점을 부각하는 이력서 자소서 클리닉_8월","25","중랑여성인력개발센터","N","관계없음","20200121","20200803","09:00","22:00","20200805","20200805","15:30","17:30","Y","Y","Y","Y","Y","Y","","20","0","0","N","N","https://jungnang.seoulwomanup.or.kr/jungnang/edu/selectEduProgram.do?sch_class_code=C100112147"
"C100112146","[청년대상 무료특강]호감 가는 면접 메이크업_7월","25","중랑여성인력개발센터","N","관계없음","20200121","20200706","09:00","22:00","20200708","20200708","13:00","15:00","Y","Y","Y","Y","Y","Y","","15","0","0","N","N","https://jungnang.seoulwomanup.or.kr/jungnang/edu/selectEduProgram.do?sch_class_code=C100112146"