"서비스구분","서비스ID","대분류명","소분류명","서비스상태","서비스명","결제방법","장소명","서비스대상","바로가기URL","장소X좌표","장소Y좌표","서비스개시시작일시","서비스개시종료일시","접수시작일시","접수종료일시","지역명"
"자체","S191230131634643719","시설대관","강당","접수중","중랑구 신내1동 자치회관 다목적 강당","유료","신내1동 자치회관","제한없음","http://yeyak.seoul.go.kr/reservation/view.web?rsvsvcid=S191230131634643719","37.605867454767605","127.09950570739394","2020-01-01 00:00:00.0","2020-12-31 00:00:00.0","2020-01-01 09:00:00.0","2020-12-31 18:00:00.0","중랑구"
"자체","S191230131839911841","시설대관","회의실","접수중","중랑구 신내1동 자치회관 다목적회의실","유료","신내1동 자치회관","성인(서울시 관련시민-상세정보확인)","http://yeyak.seoul.go.kr/reservation/view.web?rsvsvcid=S191230131839911841","37.605867454767605","127.09950570739394","2020-01-01 00:00:00.0","2020-12-31 00:00:00.0","2020-01-01 09:00:00.0","2020-12-31 18:00:00.0","중랑구"
"자체","S200106171511196712","시설대관","기타","접수중","상봉1동 3층 회의실","유료(요금안내문의)","상봉1동 자치회관","제한없음(서울시 관련시민 - 상세정보확인)","http://yeyak.seoul.go.kr/reservation/view.web?rsvsvcid=S200106171511196712","37.59983697781607","127.08716351754913","2020-01-06 00:00:00.0","2020-12-26 00:00:00.0","2020-01-06 12:00:00.0","2020-12-25 16:00:00.0","중랑구"
"자체","S200106172136699926","시설대관","기타","접수중","상봉1동 2층 강의실","유료(요금안내문의)","상봉1동 자치회관","제한없음","http://yeyak.seoul.go.kr/reservation/view.web?rsvsvcid=S200106172136699926","37.59983697781607","127.08716351754913","2020-01-06 00:00:00.0","2020-12-26 00:00:00.0","2020-01-06 09:00:00.0","2020-12-25 13:00:00.0","중랑구"
"자체","S200106172419892614","시설대관","기타","접수중","상봉1동 3층 강의실","유료(요금안내문의)","상봉1동 자치회관","제한없음","http://yeyak.seoul.go.kr/reservation/view.web?rsvsvcid=S200106172419892614","37.59983697781607","127.08716351754913","2020-01-06 00:00:00.0","2020-12-26 00:00:00.0","2020-01-06 10:00:00.0","2020-12-25 17:00:00.0","중랑구"
"자체","S200104162102269906","시설대관","다목적실","접수중","중랑구 중화1동 자치회관 생활체육실","유료","중화1동 자치회관","제한없음(서울시 관련시민)","http://yeyak.seoul.go.kr/reservation/view.web?rsvsvcid=S200104162102269906","37.60117146333222","127.0806604221005","2020-01-04 00:00:00.0","2020-12-31 00:00:00.0","2020-01-04 09:00:00.0","2020-12-31 18:00:00.0","중랑구"
"자체","S200104163027084877","시설대관","주민사랑방","접수중","중랑구 중화1동 자치회관 북카페","유료","중화1동 자치회관","제한없음(서울시 관련시민)","http://yeyak.seoul.go.kr/reservation/view.web?rsvsvcid=S200104163027084877","37.60117146333222","127.0806604221005","2020-01-04 00:00:00.0","2020-12-31 00:00:00.0","2020-01-04 09:00:00.0","2020-12-31 18:00:00.0","중랑구"
"자체","S200104163222112655","시설대관","회의실","접수중","중랑구 중화1동 자치회관 소회의실","유료","중화1동 자치회관","제한없음(서울시 관련시민)","http://yeyak.seoul.go.kr/reservation/view.web?rsvsvcid=S200104163222112655","37.60117146333222","127.0806604221005","2020-01-04 00:00:00.0","2020-12-31 00:00:00.0","2020-01-04 09:00:00.0","2020-12-31 18:00:00.0","중랑구"
"자체","S200104163356543998","시설대관","회의실","접수중","중랑구 중화1동 자치회관 대회의실","유료","중화1동 자치회관","제한없음(서울시 관련시민)","http://yeyak.seoul.go.kr/reservation/view.web?rsvsvcid=S200104163356543998","37.60117146333222","127.0806604221005","2020-01-04 00:00:00.0","2020-12-31 00:00:00.0","2020-01-04 09:00:00.0","2020-12-31 18:00:00.0","중랑구"
"자체","S191216103335410225","시설대관","다목적실","접수중","중랑구 묵2동 자치회관 다목적실","유료","묵2동주민센터 다목적실","제한없음","http://yeyak.seoul.go.kr/reservation/view.web?rsvsvcid=S191216103335410225","37.60953570167351","127.07606223108112","2020-01-01 00:00:00.0","2020-12-31 00:00:00.0","2020-01-01 09:00:00.0","2020-12-31 18:00:00.0","중랑구"
"자체","S200103153338744290","시설대관","주민사랑방","접수종료","중랑구 면목4동 자치카페(그곳에가면행복이흐른다)","유료","면목4동자치회관","제한없음","http://yeyak.seoul.go.kr/reservation/view.web?rsvsvcid=S200103153338744290","37.57470042496719","127.08560824216559","2020-01-03 00:00:00.0","2020-12-31 00:00:00.0","2020-01-03 09:00:00.0","2020-01-03 18:00:00.0","중랑구"
"자체","S200103154602751118","시설대관","회의실","접수종료","중랑구 면목4동 자치회관 회의실","유료","면목4동자치회관","제한없음","http://yeyak.seoul.go.kr/reservation/view.web?rsvsvcid=S200103154602751118","37.57470042496719","127.08560824216559","2020-01-03 00:00:00.0","2020-11-30 00:00:00.0","2020-01-03 09:01:00.0","2020-01-03 18:00:00.0","중랑구"
"자체","S200109154818573017","시설대관","회의실","접수중","중랑구 신내2동 자치회관 북카페 회의실","유료","신내2동 자치회관","제한없음(서울시 관련시민-상세정보확인)","http://yeyak.seoul.go.kr/reservation/view.web?rsvsvcid=S200109154818573017","37.60626467167909","127.09416082402393","2020-01-09 00:00:00.0","2020-12-31 00:00:00.0","2020-01-09 09:00:00.0","2020-12-31 18:00:00.0","중랑구"
"자체","S200109155624737182","시설대관","회의실","접수중","중랑구 신내2동 자치회관 대회의실","유료","신내2동 자치회관","제한없음(서울시 관련시민-상세정보확인)","http://yeyak.seoul.go.kr/reservation/view.web?rsvsvcid=S200109155624737182","37.60626467167909","127.09416082402393","2020-01-09 00:00:00.0","2020-12-31 00:00:00.0","2020-01-09 09:00:00.0","2020-12-31 18:00:00.0","중랑구"
"자체","S200109100210646543","시설대관","기타","접수중","중랑구 면목5동 자치회관 스터디룸 '이룸'","유료","면목5동 자치회관","제한없음","http://yeyak.seoul.go.kr/reservation/view.web?rsvsvcid=S200109100210646543","37.5857544989514","127.07947536182017","2020-01-09 00:00:00.0","2020-12-31 00:00:00.0","2020-01-09 00:00:00.0","2020-12-31 23:59:00.0","중랑구"
"자체","S200109101044816952","시설대관","기타","접수중","중랑구 면목5동 자치회관 창작교실","유료","면목5동 자치회관","제한없음","http://yeyak.seoul.go.kr/reservation/view.web?rsvsvcid=S200109101044816952","37.5857544989514","127.07947536182017","2020-01-09 00:00:00.0","2020-12-31 00:00:00.0","2020-01-09 00:00:00.0","2020-12-31 00:00:00.0","중랑구"
"자체","S200109101526783596","시설대관","기타","접수중","중랑구 면목5동 자치회관 주민사랑방","유료","면목5동 자치회관","제한없음","http://yeyak.seoul.go.kr/reservation/view.web?rsvsvcid=S200109101526783596","37.5857544989514","127.07947536182017","2020-01-09 00:00:00.0","2020-12-31 00:00:00.0","2020-01-09 09:00:00.0","2020-12-31 18:00:00.0","중랑구"
"자체","S200109101840716405","시설대관","기타","접수중","중랑구 면목5동 자치회관 대강당","유료","면목5동 자치회관","제한없음","http://yeyak.seoul.go.kr/reservation/view.web?rsvsvcid=S200109101840716405","37.5857544989514","127.07947536182017","2020-01-09 00:00:00.0","2020-12-31 00:00:00.0","2020-01-09 00:00:00.0","2020-12-31 00:00:00.0","중랑구"
"자체","S180524133030683365","시설대관","강의실","접수중","중화문화복지센터 지하강당","유료","중화2동 자치회관","제한없음(서울시 관련시민 - 상세정보확인)","http://yeyak.seoul.go.kr/reservation/view.web?rsvsvcid=S180524133030683365","37.602832269845265","127.07616865061197","2020-01-03 00:00:00.0","2020-12-31 00:00:00.0","2020-01-03 00:00:00.0","2020-12-31 18:00:00.0","중랑구"
"자체","S200106093726347539","시설대관","다목적실","접수중","중랑구 면목2동 자치회관3층 문화관람실","유료","면목2동 자치회관","제한없음(서울시관련시민-상세정보확인)","http://yeyak.seoul.go.kr/reservation/view.web?rsvsvcid=S200106093726347539","37.589773223581425","127.07903126269241","2020-01-06 00:00:00.0","2020-12-31 00:00:00.0","2020-01-06 09:00:00.0","2020-12-30 18:00:00.0","중랑구"
"자체","S200106114602045460","시설대관","다목적실","접수중","중랑구 면목2동 자치회관2층 한울실","유료","면목2동 자치회관","제한없음(서울시관련시민-상세정보확인)","http://yeyak.seoul.go.kr/reservation/view.web?rsvsvcid=S200106114602045460","37.589773223581425","127.07903126269241","2020-01-06 00:00:00.0","2020-12-31 00:00:00.0","2020-01-06 09:00:00.0","2020-12-30 18:00:00.0","중랑구"
"자체","S200106115023341944","시설대관","다목적실","접수중","중랑구 면목2동 자치회관2층 새늘실","유료","면목2동 자치회관","제한없음(서울시관련시민-상세정보확인)","http://yeyak.seoul.go.kr/reservation/view.web?rsvsvcid=S200106115023341944","37.589773223581425","127.07903126269241","2020-01-06 00:00:00.0","2020-12-31 00:00:00.0","2020-01-06 09:00:00.0","2020-12-30 18:00:00.0","중랑구"
"자체","S200106115408795683","시설대관","다목적실","접수중","중랑구 면목2동 자치회관3층 사랑방","유료","면목2동 자치회관","제한없음(서울시관련시민-상세정보확인)","http://yeyak.seoul.go.kr/reservation/view.web?rsvsvcid=S200106115408795683","37.589773223581425","127.07903126269241","2020-01-06 00:00:00.0","2020-12-31 00:00:00.0","2020-01-06 09:00:00.0","2020-12-30 18:00:00.0","중랑구"
"자체","S200219165452857066","시설대관","회의실","접수중","중랑구 사회적경제지원센터 공유스튜디오","유료","중랑구 사회적 경제 지원 센터내","제한없음(중랑구민 우선순위)","http://yeyak.seoul.go.kr/reservation/view.web?rsvsvcid=S200219165452857066","37.59573825255108","127.07833551812456","2020-05-01 00:00:00.0","2020-12-31 00:00:00.0","2020-05-04 09:00:00.0","2020-12-31 09:00:00.0","중랑구"
"자체","S200219181858832677","시설대관","회의실","접수중","중랑구 사회적경제지원센터 회의실(교육실)","유료","중랑구 사회적 경제 지원 센터내","제한없음(중랑구민 우선순위)","http://yeyak.seoul.go.kr/reservation/view.web?rsvsvcid=S200219181858832677","37.59573825255108","127.07833551812456","2020-05-01 00:00:00.0","2020-12-31 00:00:00.0","2020-05-04 09:00:00.0","2020-12-31 09:00:00.0","중랑구"
"자체","S200219182313759439","시설대관","회의실","접수중","중랑구 사회적경제지원센터 청년공간","무료","중랑구 사회적 경제 지원 센터내","제한없음(중랑구에 거주 중이거나 활동중인 청년 및 청년모임(청년이란 서울 중랑구 청년 기본조례에 의거 만19세이상34세이하를 말한다))","http://yeyak.seoul.go.kr/reservation/view.web?rsvsvcid=S200219182313759439","37.59573825255108","127.07833551812456","2020-05-01 00:00:00.0","2020-12-31 00:00:00.0","2020-05-04 09:00:00.0","2020-12-31 09:00:00.0","중랑구"
"자체","S200219182545311985","시설대관","회의실","접수중","중랑구 사회적경제지원센터 주민회의실","무료","중랑구 사회적 경제 지원 센터내","제한없음(중화2동주민)","http://yeyak.seoul.go.kr/reservation/view.web?rsvsvcid=S200219182545311985","37.59573825255108","127.07833551812456","2020-05-01 00:00:00.0","2020-12-31 00:00:00.0","2020-05-04 09:00:00.0","2020-12-31 21:00:00.0","중랑구"
"자체","S200421161851591009","시설대관","회의실","접수중","중랑구 사회적경제지원센터 공유오피스","유료","중랑구 사회적 경제 지원 센터내","제한없음(중랑구민 우선순위)","http://yeyak.seoul.go.kr/reservation/view.web?rsvsvcid=S200421161851591009","37.59573825255108","127.07833551812456","2020-05-01 00:00:00.0","2020-12-31 00:00:00.0","2020-05-04 09:00:00.0","2020-12-31 09:00:00.0","중랑구"