"키","명칭","행정시","행정구","행정동"
"BE_IW17-0001","OK Discount Mart","Seoul","Yangcheon-gu","Mok4-dong"
"BE_IW17-0002","New Mart","Seoul","Dongjak-gu","Sangdo2-dong"
"BE_IW17-0003","Supermarket","Seoul","Yeongdeungpo-gu","Daerim3-dong"
"BE_IW17-0004","Doyeong Discount Mart","Seoul","Eunpyeong-gu","Yeokchon-dong"
"BE_IW17-0005","Dongwon Discount Mart","Seoul","Jungnang-gu","Myeonmokbon-dong"
"BE_IW17-0006","Mario Mario Jum","Seoul","Geumcheon-gu","Gasan-dong"
"BE_IW17-0007","Mega Mart","Seoul","Dongjak-gu","Sindaebang2-dong"
"BE_IW17-0008","Samcheonri Bicycle Mangujeom","Seoul","Jungnang-gu","Mangubon-dong"
"BE_IW17-0009","Sinhan SuperMarket","Seoul","Nowon-gu","Sanggye5-dong"
"BE_IW17-0010","LG Discount Mart","Seoul","Yangcheon-gu","Mok2-dong"
"BE_IW17-0011","Woosung Discount Mart","Seoul","Gangdong-gu","Cheonho1-dong"
"BE_IW17-0012","One Mart","Seoul","Gwanak-gu","Inheon-dong"
"BE_IW17-0013","Uniqlo","Seoul","Seocho-gu","Yangjae2-dong"
"BE_IW17-0014","Jinro M Mart","Seoul","Seongbuk-gu","Wolgok1-dong"
"BE_IW17-0015","Prime Mart","Seoul","Gangseo-gu","Banghwa2-dong"
"BE_IW17-0016","Home Plus","Seoul","Gangseo-gu","Gayang2-dong"
"BE_IW17-0017","Home Plus","Seoul","Gangdong-gu","Cheonho1-dong"
"BE_IW17-0018","Home Plus","Seoul","Gangseo-gu","Deungchon1-dong"
"BE_IW17-0019","Home Plus","Seoul","Geumcheon-gu","Doksan1-dong"
"BE_IW17-0020","Home Plus","Seoul","Dongdaemun-gu","Yongsin-dong"
"BE_IW17-0021","Home Plus","Seoul","Jungnang-gu","Myeonmok5-dong"
"BE_IW17-0022","Home Plus","Seoul","Yangcheon-gu","Mok1-dong"
"BE_IW17-0023","Home Plus","Seoul","Dobong-gu","Banghak1-dong"
"BE_IW17-0024","Home Plus","Seoul","Jungnang-gu","Sangbong1-dong"
"BE_IW17-0025","Home Plus","Seoul","Gwanak-gu","Namhyeon-dong"
"BE_IW17-0026","Home Plus","Seoul","Geumcheon-gu","Siheung1-dong"
"BE_IW17-0027","Home Plus","Seoul","Jungnang-gu","Sinnae2-dong"
"BE_IW17-0028","Home Plus","Seoul","Guro-gu","Sindorim-dong"
"BE_IW17-0029","Home Plus","Seoul","Yeongdeungpo-gu","Mullae-dong"
"BE_IW17-0030","Home Plus","Seoul","Seongbuk-gu","Wolgok2-dong"
"BE_IW17-0031","Home Plus","Seoul","Mapo-gu","Seongsan2-dong"
"BE_IW17-0032","Home Plus","Seoul","Songpa-gu","Jamsil6-dong"
"BE_IW17-0033","Home Plus","Seoul","Nowon-gu","Junggye2.3-dong"
"BE_IW17-0034","Home Plus","Seoul","Mapo-gu","Hapjeong-dong"
"BE_IW17-0035","E-mart","Seoul","Dobong-gu","Chang5-dong"
"BE_IW17-0036","E-mart","Seoul","Jungnang-gu","Muk1-dong"
"BE_IW17-0037","E-mart","Seoul","Guro-gu","Guro3-dong"
"BE_IW17-0038","E-mart","Seoul","Seocho-gu","Yangjae2-dong"
"BE_IW17-0039","E-mart","Seoul","Yongsan-gu","Hangangno-dong"
"BE_IW17-0040","E-mart","Seoul","Jungnang-gu","Mangubon-dong"
"BE_IW17-0041","E-mart","Seoul","Seongbuk-gu","Wolgok1-dong"
"BE_IW17-0042","E-mart","Seoul","Songpa-gu","Munjeong2-dong"
"BE_IW17-0043","E-mart","Seoul","Nowon-gu","Wolgye3-dong"
"BE_IW17-0044","E-mart","Seoul","Dongdaemun-gu","Imun1-dong"
"BE_IW17-0045","E-mart","Seoul","Yeongdeungpo-gu","Yeoui-dong"
"BE_IW17-0046","E-mart","Seoul","Guro-gu","Guro5-dong"
"BE_IW17-0047","E-mart","Seoul","Gangseo-gu","Gonghang-dong"
"BE_IW17-0048","E-mart","Seoul","Eunpyeong-gu","Susaek-dong"
"BE_IW17-0049","E-mart","Seoul","Jung-gu","Hwanghak-dong"
"BE_IW17-0050","E-mart","Seoul","Seongdong-gu","Seongsu2ga1-dong"
"BE_IW17-0051","E-mart","Seoul","Seongbuk-gu","Gireum2-dong"
"BE_IW17-0052","E-mart","Seoul","Yangcheon-gu","Sinwol5-dong"
"BE_IW17-0053","E-mart","Seoul","Seongdong-gu","Haengdang1-dong"
"BE_IW17-0054","E-mart","Seoul","Gangnam-gu","Suseo-dong"
"BE_IW17-0055","E-mart","Seoul","Dongjak-gu","Sadang1-dong"
"BE_IW17-0056","E-mart","Seoul","Gangdong-gu","Cheonho2-dong"
"BE_IW17-0057","E-mart","Seoul","Yangcheon-gu","Mok1-dong"
"BE_IW17-0058","E-mart","Seoul","Yeongdeungpo-gu","Yeongdeungpo-dong"
"BE_IW17-0059","E-mart","Seoul","Gwangjin-gu","Jayang3-dong"
"BE_IW17-0060","E-mart","Seoul","Gangseo-gu","Gayang3-dong"
"BE_IW17-0061","E-mart","Seoul","Gangdong-gu","Myeongil2-dong"
"BE_IW17-0062","E-mart","Seoul","Eunpyeong-gu","Eungam1-dong"
"BE_IW17-0063","E-mart","Seoul","Gangnam-gu","Yeoksam2-dong"
"BE_IW17-0064","E-Mart","Seoul","Mapo-gu","Gongdeok-dong"
"BE_IW17-0065","E-Mart","Seoul","Dongdaemun-gu","Jangan1-dong"
"BE_IW17-0066","Big Market Geumcheon Shop","Seoul","Geumcheon-gu","Doksan1-dong"
"BE_IW17-0067","Big Market Dobong Shop","Seoul","Dobong-gu","Banghak1-dong"
"BE_IW17-0068","Big Market Yeongdeungpo Shop","Seoul","Yeongdeungpo-gu","Yeongdeungpo-dong"
"BE_IW17-0069","Lotte Mart","Seoul","Gwangjin-gu","Guui3-dong"
"BE_IW17-0070","Lotte Mart","Seoul","Guro-gu","Guro2-dong"
"BE_IW17-0071","Lotte Mart","Seoul","Gangseo-gu","Banghwa2-dong"
"BE_IW17-0072","Lotte Mart","Seoul","Gangbuk-gu","Samyang-dong"
"BE_IW17-0073","Lotte Mart","Seoul","Jung-gu","Hoehyeon-dong"
"BE_IW17-0074","Lotte Mart","Seoul","Songpa-gu","Munjeong2-dong"
"BE_IW17-0075","Lotte Mart","Seoul","Songpa-gu","Jamsil3-dong"
"BE_IW17-0076","Lotte Mart","Seoul","Nowon-gu","Junggye1-dong"
"BE_IW17-0077","Lotte Mart","Seoul","Dongdaemun-gu","Jeonnong1-dong"
"BE_IW17-0078","Lotte Mart","Seoul","Seongdong-gu","Haengdang2-dong"
"BE_IW17-0079","NH Hanaro Mart","Seoul","Mapo-gu","Seogyo-dong"
"BE_IW17-0080","NH Hanaro Mart","Seoul","Songpa-gu","Macheon2-dong"
"BE_IW17-0081","NH Hanaro Mart","Seoul","Yangcheon-gu","Sinjeong4-dong"
"BE_IW17-0082","NH Hanaro Mart","Seoul","Gangdong-gu","Seongnae1-dong"
"BE_IW17-0083","NH Hanaro Mart","Seoul","Gangdong-gu","Seongnae1-dong"
"BE_IW17-0084","NH Hanaro Mart","Seoul","Yeongdeungpo-gu","Dangsan1-dong"
"BE_IW17-0085","NH Hanaro Mart","Seoul","Gangdong-gu","Cheonho2-dong"
"BE_IW17-0086","Hanaro Club","Seoul","Yangcheon-gu","Mok1-dong"
"BE_IW17-0087","Hanaro Club","Seoul","Mapo-gu","Seogyo-dong"
"BE_IW17-0088","Hanaro Club","Seoul","Seocho-gu","Yangjae2-dong"
"BE_IW17-0089","Hanaro Club","Seoul","Yongsan-gu","Hangangno-dong"
"BE_IW17-0090","Hanaro Club","Seoul","Dobong-gu","Chang4-dong"
"BE_IW17-0091","COSTCO","Seoul","Jungnang-gu","Sangbong2-dong"
"BE_IW17-0092","COSTCO","Seoul","Seocho-gu","Yangjae2-dong"
"BE_IW17-0093","COSTCO","Seoul","Yeongdeungpo-gu","Yangpyeong1-dong"
"BE_IW17-0094","COSTCO","Seoul","Yeongdeungpo-gu","Yangpyeong1-dong"
"BE_IW17-0095","Techno Mart (Gangbyeon)","Seoul","Gwangjin-gu","Guui3-dong"
"BE_IW17-0096","Geonyeong Omni Department Store","Seoul","Nowon-gu","Junggye2.3-dong"
"BE_IW17-0097","Gyeongbang Time Square","Seoul","Yeongdeungpo-gu","Yeongdeungpo-dong"
"BE_IW17-0098","Dongbang Department Store","Seoul","Dongdaemun-gu","Jegi-dong"
"BE_IW17-0099","Sunplaza Department Store","Seoul","Yeongdeungpo-gu","Daerim1-dong"
"BE_IW17-0100","Seun Department Store","Seoul","Jongno-gu","Jongno1.2.3.4ga-dong"
"BE_IW17-0101","Yeouido Department Store","Seoul","Yeongdeungpo-gu","Yeoui-dong"
"BE_IW17-0102","World Tax-Free Department Store","Seoul","Yongsan-gu","Namyeong-dong"
"BE_IW17-0103","Jabgok General Department Store","Seoul","Yangcheon-gu","Sinjeong3-dong"
"BE_IW17-0104","Cheongryangri Hyundae Coa","Seoul","Dongdaemun-gu","Cheongnyangni-dong"
"BE_IW17-0105","Taepyeong Department Stores","Seoul","Dongjak-gu","Sadang2-dong"
"BE_IW17-0106","Haengbokhan Department Store","Seoul","Yangcheon-gu","Mok1-dong"
"BE_IW17-0107","Shinsegae Department Store","Seoul","Jung-gu","Myeong-dong"
"BE_IW17-0108","Shinsegae Department Store","Seoul","Yeongdeungpo-gu","Yeongdeungpo-dong"
"BE_IW17-0109","Shinsegae Department Store","Seoul","Seocho-gu","Banpo4-dong"
"BE_IW17-0110","Shinsegae Dept. Store","Seoul","Jung-gu","Myeong-dong"
"BE_IW17-0111","Lotte Department Store","Seoul","Gangnam-gu","Daechi4-dong"
"BE_IW17-0112","Lotte Department Store","Seoul","Gwanak-gu","Boramae-dong"
"BE_IW17-0113","Lotte Department Store","Seoul","Nowon-gu","Sanggye2-dong"
"BE_IW17-0114","Lotte Department Store","Seoul","Songpa-gu","Jamsil3-dong"
"BE_IW17-0115","Lotte Department Store","Seoul","Dongdaemun-gu","Jeonnong1-dong"
"BE_IW17-0116","Lotte Department Store","Seoul","Jung-gu","Sogong-dong"
"BE_IW17-0117","Lotte Department Store","Seoul","Gwangjin-gu","Jayang3-dong"
"BE_IW17-0118","Lotte Department Store","Seoul","Yeongdeungpo-gu","Yeongdeungpobon-dong"
"BE_IW17-0119","Lotte Department Store","Seoul","Gangbuk-gu","Songjung-dong"
"BE_IW17-0120","Lotte Dept. Store","Seoul","Gangseo-gu","Banghwa2-dong"
"BE_IW17-0121","Galleria Dep. Store","Seoul","Gangnam-gu","Apgujeong-dong"
"BE_IW17-0122","Galleria Dep. Store","Seoul","Gangnam-gu","Apgujeong-dong"
"BE_IW17-0123","AK Plaza","Seoul","Guro-gu","Guro5-dong"
"BE_IW17-0124","Hyundai Dept. Store","Seoul","Gangnam-gu","Sinsa-dong"
"BE_IW17-0125","Hyundai Dept. Store","Seoul","Gangdong-gu","Cheonho2-dong"
"BE_IW17-0126","Hyundai Dept. Store","Seoul","Seodaemun-gu","Sinchon-dong"
"BE_IW17-0127","Hyundai Dept. Store","Seoul","Yangcheon-gu","Mok1-dong"
"BE_IW17-0128","Hyundai Dept. Store","Seoul","Gangnam-gu","Samseong1-dong"
"BE_IW17-0129","Hyundai Dept. Store","Seoul","Seongbuk-gu","Gireum2-dong"
"BE_IW17-0130","Hyundai Department Stores","Seoul","Seodaemun-gu","Sinchon-dong"
"BE_IW17-0131","NC Department Stores","Seoul","Gangseo-gu","Deungchon3-dong"
"BE_IW17-0132","D-Cube Department Store","Seoul","Guro-gu","Sindorim-dong"
"BE_IW17-0133","Garden5","Seoul","Songpa-gu","Munjeong2-dong"
"BE_IW17-0134","Mario Outlet 1st Bldg.","Seoul","Geumcheon-gu","Gasan-dong"
"BE_IW17-0135","Bubble Pong Gasan Second Location","Seoul","Geumcheon-gu","Gasan-dong"
"BE_IW17-0136","Shinsegae Simon","Seoul","Gangnam-gu","Cheongdam-dong"
"BE_IW17-0137","Hyundai Outlet","Seoul","Geumcheon-gu","Gasan-dong"
"BE_IW17-0138","New Core Outlet","Seoul","Seocho-gu","Banpo3-dong"
"BE_IW17-0139","New Core Outlet","Seoul","Seocho-gu","Banpo3-dong"
"BE_IW17-0140","2001 Outlet","Seoul","Guro-gu","Gocheok1-dong"
"BE_IW17-0141","2001 Outlet","Seoul","Yeongdeungpo-gu","Dangsan2-dong"
"BE_IW17-0142","2001 Outlet","Seoul","Yeongdeungpo-gu","Yeongdeungpo-dong"
"BE_IW17-0143","2001 Outlet","Seoul","Eunpyeong-gu","Daejo-dong"
"BE_IW17-0144","2001 Outlet","Seoul","Nowon-gu","Junggye2.3-dong"
"BE_IW17-0145","2001 Outlet","Seoul","Nowon-gu","Junggye2.3-dong"
"BE_IW17-0146","2001 Outlet","Seoul","Nowon-gu","Junggye2.3-dong"
"BE_IW17-0147","Lotte Outlet Seoul Station Shop","Seoul","Jung-gu","Hoehyeon-dong"