"서비스구분","서비스ID","대분류명","소분류명","서비스상태","서비스명","결제방법","장소명","서비스대상","바로가기URL","장소X좌표","장소Y좌표","서비스개시시작일시","서비스개시종료일시","접수시작일시","접수종료일시","지역명"
"자체","S191216122310306606","시설대관","기타","예약일시중지","대흥동자치회관 취미교실(2020)","유료","마포구 대흥동자치회관 취미교실2","제한없음(서울시 관련시민-상세정보 확인)","http://yeyak.seoul.go.kr/reservation/view.web?rsvsvcid=S191216122310306606","37.55585054288168","126.94237181766061","2019-12-16 00:00:00.0","2020-12-31 00:00:00.0","2019-12-16 00:00:00.0","2020-12-31 00:00:00.0","마포구"
"자체","S191228141303525347","시설대관","다목적실","예약일시중지","마포구 서강동주민센터 2층 다목적실(2020)","유료","마포구 서강동주민센터 2층 다목적실","제한없음","http://yeyak.seoul.go.kr/reservation/view.web?rsvsvcid=S191228141303525347","37.54773607856591","126.93206224624826","2020-01-01 00:00:00.0","2020-12-31 00:00:00.0","2020-01-01 00:00:00.0","2020-12-31 23:00:00.0","마포구"
"자체","S200109094321603324","시설대관","강의실","예약일시중지","염리동주민센터 지하 강의실(2020)","유료","마포구 염리동주민센터 지하 강의실","제한없음(서울시 관련시민-상세정보확인)","http://yeyak.seoul.go.kr/reservation/view.web?rsvsvcid=S200109094321603324","37.54707276986743","126.94564665625889","2020-01-01 00:00:00.0","2020-12-31 00:00:00.0","2020-01-01 09:00:00.0","2020-12-31 18:00:00.0","마포구"
"자체","S191230140831748834","시설대관","강당","예약일시중지","마포구 공덕동주민센터 2층 강당(2020)","유료","공덕동주민센터","제한없음","http://yeyak.seoul.go.kr/reservation/view.web?rsvsvcid=S191230140831748834","37.55017434738842","126.96003451324378","2019-12-23 00:00:00.0","2020-12-31 00:00:00.0","2019-12-23 09:00:00.0","2020-12-31 18:00:00.0","마포구"
"자체","S191230143152560559","시설대관","기타","예약일시중지","마포구 공덕동주민센터 2층 공부방(2020)","유료","공덕동주민센터","제한없음","http://yeyak.seoul.go.kr/reservation/view.web?rsvsvcid=S191230143152560559","37.55017434738842","126.96003451324378","2019-12-30 00:00:00.0","2020-12-31 00:00:00.0","2019-12-30 09:00:00.0","2020-12-31 18:00:00.0","마포구"
"자체","S191230150645589603","시설대관","다목적실","예약일시중지","마포구 공덕동주민센터 지하1층 다목적실(2020)","유료","공덕동주민센터","제한없음","http://yeyak.seoul.go.kr/reservation/view.web?rsvsvcid=S191230150645589603","37.55017434738842","126.96003451324378","2019-12-30 00:00:00.0","2020-12-31 00:00:00.0","2019-12-30 09:00:00.0","2020-12-31 18:00:00.0","마포구"
"자체","S191111203718886380","시설대관","녹화/촬영","예약일시중지","2020년 녹화1-난지","유료","난지한강공원","제한없음","http://yeyak.seoul.go.kr/reservation/view.web?rsvsvcid=S191111203718886380","37.56283678511617","126.88542105032526","2019-12-01 00:00:00.0","2020-12-31 00:00:00.0","2019-12-01 00:00:00.0","2020-12-31 00:00:00.0","마포구"
"자체","S200107133512897840","시설대관","회의실","예약일시중지","망원2동 자치회관 회의실(2020)","유료","망원2동 자치회관","제한없음","http://yeyak.seoul.go.kr/reservation/view.web?rsvsvcid=S200107133512897840","37.56031116271672","126.90231600047156","2020-01-01 00:00:00.0","2020-12-31 00:00:00.0","2020-01-01 09:00:00.0","2020-12-30 18:00:00.0","마포구"
"자체","S200107135237298386","시설대관","강당","예약일시중지","망원2동 자치회관 지하강당(2020)","유료","망원2동 자치회관","제한없음","http://yeyak.seoul.go.kr/reservation/view.web?rsvsvcid=S200107135237298386","37.56031116271672","126.90231600047156","2020-01-01 00:00:00.0","2020-12-31 00:00:00.0","2020-01-01 09:00:00.0","2020-12-31 18:00:00.0","마포구"
"자체","S200102182752525652","시설대관","강의실","예약일시중지","마포구 상암동주민센터 2층 강의실(2020)","유료","상암동주민센터","제한없음","http://yeyak.seoul.go.kr/reservation/view.web?rsvsvcid=S200102182752525652","37.57833530481543","126.89467129966147","2020-01-02 00:00:00.0","2020-12-31 00:00:00.0","2020-01-02 09:00:00.0","2020-12-31 18:00:00.0","마포구"
"자체","S200102194923118227","시설대관","다목적실","예약일시중지","상암동주민센터 다목적실(2020)","유료","상암동주민센터","제한없음","http://yeyak.seoul.go.kr/reservation/view.web?rsvsvcid=S200102194923118227","37.57833530481543","126.89467129966147","2020-01-02 00:00:00.0","2020-12-31 00:00:00.0","2020-01-02 09:00:00.0","2020-12-31 18:00:00.0","마포구"
"자체","S191227152355363376","시설대관","강의실","예약일시중지","마포구 서강동주민센터 1층 1강의실(2020)","유료","마포구 서강동주민센터 1층 1강의실","제한없음","http://yeyak.seoul.go.kr/reservation/view.web?rsvsvcid=S191227152355363376","37.54773607856591","126.93206224624826","2020-01-01 00:00:00.0","2020-12-31 00:00:00.0","2020-01-01 00:00:00.0","2020-12-31 23:00:00.0","마포구"
"자체","S200102104903077703","시설대관","강당","예약일시중지","도화동주민센터 4층 강당(2020)","유료","마포구 도화동주민센터 4층 강당","제한없음","http://yeyak.seoul.go.kr/reservation/view.web?rsvsvcid=S200102104903077703","37.54153169240502","126.94987352318011","2020-01-02 00:00:00.0","2020-12-31 00:00:00.0","2020-01-02 09:00:00.0","2020-12-31 18:00:00.0","마포구"
"자체","S200109095540169525","시설대관","다목적실","예약일시중지","염리동주민센터 3층 다목적실(2020)","유료","마포구 염리동주민센터 3층 다목적실","제한없음","http://yeyak.seoul.go.kr/reservation/view.web?rsvsvcid=S200109095540169525","37.54707276986743","126.94564665625889","2020-01-01 00:00:00.0","2020-12-31 00:00:00.0","2020-01-01 09:00:00.0","2020-12-31 18:00:00.0","마포구"
"자체","S200102110018880515","시설대관","회의실","예약일시중지","도화동 주민센터 3층 회의실1(2020)-혜윰실","유료","마포구 도화동주민센터 3층 회의실","제한없음","http://yeyak.seoul.go.kr/reservation/view.web?rsvsvcid=S200102110018880515","37.54153169240502","126.94987352318011","2020-01-02 00:00:00.0","2020-12-31 00:00:00.0","2020-01-02 10:00:00.0","2020-12-31 18:00:00.0","마포구"
"자체","S200102110615517950","시설대관","회의실","예약일시중지","도화동 주민센터 3층 회의실2(2020)-도담실","유료","마포구 도화동주민센터 3층 회의실","제한없음","http://yeyak.seoul.go.kr/reservation/view.web?rsvsvcid=S200102110615517950","37.54153169240502","126.94987352318011","2020-01-02 00:00:00.0","2020-12-31 00:00:00.0","2020-01-02 09:00:00.0","2020-12-31 18:00:00.0","마포구"
"자체","S191231103733169870","시설대관","강의실","예약일시중지","망원1동 주민센터 제2강의실(2020)","유료","망원1동주민센터 제2강의실","제한없음","http://yeyak.seoul.go.kr/reservation/view.web?rsvsvcid=S191231103733169870","37.55558899861207","126.90559061635899","2020-01-01 00:00:00.0","2020-12-31 00:00:00.0","2019-12-31 00:00:00.0","2020-12-31 23:59:00.0","마포구"
"자체","S191231161457853808","시설대관","녹화/촬영","접수중","경의선숲길공원 촬영신청","유료","경의선숲길 연남동 부근","제한없음","http://yeyak.seoul.go.kr/reservation/view.web?rsvsvcid=S191231161457853808","37.556534857965666","126.9283919165461","2019-12-31 00:00:00.0","2020-12-31 00:00:00.0","2019-12-31 08:00:00.0","2020-12-29 20:00:00.0","마포구"
"자체","S191216111137255599","시설대관","녹화/촬영","접수중","월드컵공원(촬영)","유료","월드컵공원","제한없음","http://yeyak.seoul.go.kr/reservation/view.web?rsvsvcid=S191216111137255599","37.5635262478331","126.8984363299834","2020-01-02 00:00:00.0","2020-12-31 00:00:00.0","2020-01-02 00:00:00.0","2020-12-31 23:59:00.0","마포구"
"자체","S191231110528909420","시설대관","강당","예약일시중지","연남동주민센터 3층 강당(2020)","유료","연남동주민센터","제한없음","http://yeyak.seoul.go.kr/reservation/view.web?rsvsvcid=S191231110528909420","37.56450284206679","126.92202317921227","2020-01-01 00:00:00.0","2020-12-31 00:00:00.0","2020-01-01 00:00:00.0","2020-12-31 18:00:00.0","마포구"
"자체","S191231131909521949","시설대관","강의실","예약일시중지","연남동주민센터 2층회의실(2020)","유료","연남동주민센터","제한없음","http://yeyak.seoul.go.kr/reservation/view.web?rsvsvcid=S191231131909521949","37.56450284206679","126.92202317921227","2020-01-01 00:00:00.0","2020-12-31 00:00:00.0","2020-01-01 00:00:00.0","2020-12-31 18:00:00.0","마포구"
"자체","S191231134422678008","시설대관","강당","예약일시중지","연남동주민센터 지하 강당(2020)","유료","연남동주민센터","제한없음","http://yeyak.seoul.go.kr/reservation/view.web?rsvsvcid=S191231134422678008","37.56450284206679","126.92202317921227","2020-01-01 00:00:00.0","2020-12-31 00:00:00.0","2020-01-01 00:00:00.0","2020-12-31 18:00:00.0","마포구"
"자체","S191231140639099985","시설대관","강의실","예약일시중지","연남동주민센터 청소년공부방(2020)","유료","연남동주민센터","제한없음","http://yeyak.seoul.go.kr/reservation/view.web?rsvsvcid=S191231140639099985","37.56450284206679","126.92202317921227","2020-01-01 00:00:00.0","2020-12-31 00:00:00.0","2020-01-01 00:00:00.0","2020-12-31 18:00:00.0","마포구"
"자체","S200109093512263345","시설대관","강의실","예약일시중지","염리동주민센터 3층 강의실(2020)","유료","마포구 염리동주민센터 3층 강의실","제한없음(서울시 관련시민-상세정보 확인)","http://yeyak.seoul.go.kr/reservation/view.web?rsvsvcid=S200109093512263345","37.54707276986743","126.94564665625889","2020-01-01 00:00:00.0","2020-12-31 00:00:00.0","2020-01-01 09:00:00.0","2020-12-31 18:00:00.0","마포구"
"자체","S191228144418228897","시설대관","기타","예약일시중지","마포구 서강동주민센터 2층 2강의실(2020)","유료","마포구 서강동주민센터 2층 2강의실","제한없음","http://yeyak.seoul.go.kr/reservation/view.web?rsvsvcid=S191228144418228897","37.54773607856591","126.93206224624826","2020-01-01 00:00:00.0","2020-12-31 00:00:00.0","2020-01-01 00:00:00.0","2020-12-31 23:00:00.0","마포구"
"자체","S191216105552091532","시설대관","회의실","예약일시중지","대흥동자치회관 회의실(2020)","유료","마포구 대흥동자치회관 지하회의실","제한없음(                                                                                                                                                                                                                                                                                                                                                         서울시 관련시민-상세정보 확인                  )","http://yeyak.seoul.go.kr/reservation/view.web?rsvsvcid=S191216105552091532","37.55585054288168","126.94237181766061","2019-12-16 00:00:00.0","2020-12-31 00:00:00.0","2019-12-16 00:00:00.0","2020-12-31 00:00:00.0","마포구"
"자체","S200102122633976827","시설대관","회의실","예약일시중지","마포구 신수동주민센터 3층 소회의실 (2020)","유료","마포구 신수동주민센터 3층 소회의실 ","제한없음","http://yeyak.seoul.go.kr/reservation/view.web?rsvsvcid=S200102122633976827","37.547157546578255","126.93510453374362","2020-01-02 00:00:00.0","2020-12-31 00:00:00.0","2020-01-02 09:00:00.0","2020-12-31 18:00:00.0","마포구"
"자체","S191111202516763599","시설대관","녹화/촬영","예약일시중지","2020년 영화촬영1(주간)-난지","유료","난지한강공원>난지안내센터","제한없음","http://yeyak.seoul.go.kr/reservation/view.web?rsvsvcid=S191111202516763599","37.5628367851","126.8854210503","2019-12-01 00:00:00.0","2020-12-31 00:00:00.0","2019-12-01 00:00:00.0","2020-12-31 00:00:00.0","마포구"
"자체","S191111203333902683","시설대관","녹화/촬영","예약일시중지","2020년 영화촬영1(야간)-난지","유료","난지한강공원>난지안내센터","제한없음","http://yeyak.seoul.go.kr/reservation/view.web?rsvsvcid=S191111203333902683","37.5628367851","126.8854210503","2019-12-01 00:00:00.0","2020-12-31 00:00:00.0","2019-12-01 00:00:00.0","2020-12-31 00:00:00.0","마포구"
"자체","S200103153246098313","시설대관","강당","예약일시중지","성산2동주민센터 3층 강당(2020)","유료","성산2동 주민센터","제한없음","http://yeyak.seoul.go.kr/reservation/view.web?rsvsvcid=S200103153246098313","37.56861285134777","126.90896997771466","2020-01-03 00:00:00.0","2020-12-31 00:00:00.0","2020-01-03 09:00:00.0","2020-12-31 18:00:00.0","마포구"
"자체","S200103153502598176","시설대관","다목적실","예약일시중지","성산2동주민센터 프로그램실(2020)","유료","성산2동 주민센터","제한없음(서울시 관련시민-상세정보 확인)","http://yeyak.seoul.go.kr/reservation/view.web?rsvsvcid=S200103153502598176","37.56861285134777","126.90896997771466","2020-01-03 00:00:00.0","2020-12-31 00:00:00.0","2020-01-03 09:00:00.0","2020-12-31 18:00:00.0","마포구"
"자체","S200102121157246975","시설대관","강당","예약일시중지","신수동주민센터 4층 강당(2020)","유료","마포구 신수동주민센터 4층 강당","제한없음","http://yeyak.seoul.go.kr/reservation/view.web?rsvsvcid=S200102121157246975","37.547157546578255","126.93510453374362","2020-01-02 00:00:00.0","2020-12-31 00:00:00.0","2020-01-02 09:00:00.0","2020-12-31 18:00:00.0","마포구"
"자체","S200107150647865657","시설대관","녹화/촬영","접수중","문화비축기지(촬영)","유료","마포문화비축기지","제한없음","http://yeyak.seoul.go.kr/reservation/view.web?rsvsvcid=S200107150647865657","37.5703456074","126.8950311952","2020-01-07 00:00:00.0","2020-12-31 00:00:00.0","2020-01-07 00:00:00.0","2020-12-31 23:59:00.0","마포구"
"자체","S191223090234386567","시설대관","기타","예약일시중지","아현동주민센터 지하 체력단련실(2020)","유료","마포구 아현동주민센터 지하 체력단련실","제한없음(서울시 관련시민-상세정보 확인)","http://yeyak.seoul.go.kr/reservation/view.web?rsvsvcid=S191223090234386567","37.54710802253472","126.95215563633076","2019-12-23 00:00:00.0","2020-12-31 00:00:00.0","2019-12-23 09:00:00.0","2020-12-31 23:59:00.0","마포구"
"자체","S200103164602199007","시설대관","강당","예약일시중지","성산1동 주민센터 강당(2020)","유료","성산1동 주민센터","제한없음","http://yeyak.seoul.go.kr/reservation/view.web?rsvsvcid=S200103164602199007","37.56336822188906","126.90789430801578","2020-01-03 00:00:00.0","2020-12-31 00:00:00.0","2020-01-03 09:00:00.0","2020-12-26 23:00:00.0","마포구"
"자체","S200103173040785542","시설대관","다목적실","예약일시중지","성산1동 자치회관 제1강의실(2020)","유료","성산1동 주민센터","제한없음","http://yeyak.seoul.go.kr/reservation/view.web?rsvsvcid=S200103173040785542","37.56336822188906","126.90789430801578","2020-01-03 00:00:00.0","2020-12-31 00:00:00.0","2020-01-03 09:00:00.0","2020-12-26 23:00:00.0","마포구"
"자체","S200103173656410449","시설대관","다목적실","예약일시중지","성산1동 자치회관 중회의실(2020)","유료","성산1동 주민센터","제한없음","http://yeyak.seoul.go.kr/reservation/view.web?rsvsvcid=S200103173656410449","37.56336822188906","126.90789430801578","2020-01-03 00:00:00.0","2020-12-31 00:00:00.0","2020-01-03 00:00:00.0","2020-12-26 23:00:00.0","마포구"
"자체","S191223084846910165","시설대관","강당","예약일시중지","아현동 주민센터 4층 강당(2020)","유료","마포구 아현동주민센터 4층 강당","제한없음(서울시 관련시민-상세정보 확인)","http://yeyak.seoul.go.kr/reservation/view.web?rsvsvcid=S191223084846910165","37.54710802253472","126.95215563633076","2019-12-23 00:00:00.0","2020-12-31 00:00:00.0","2019-12-23 09:00:00.0","2020-12-31 23:59:00.0","마포구"
"자체","S191111210817719947","시설대관","녹화/촬영","예약일시중지","2020년 영화촬영1(주간)-망원","유료","망원한강공원","제한없음","http://yeyak.seoul.go.kr/reservation/view.web?rsvsvcid=S191111210817719947","37.55234431279685","126.89988648400843","2019-12-01 00:00:00.0","2020-12-31 00:00:00.0","2019-12-01 00:00:00.0","2020-12-31 00:00:00.0","마포구"
"자체","S191111211239386132","시설대관","녹화/촬영","예약일시중지","2020년 영화촬영1(야간)-망원","유료","망원한강공원","제한없음","http://yeyak.seoul.go.kr/reservation/view.web?rsvsvcid=S191111211239386132","37.55234431279685","126.89988648400843","2019-12-01 00:00:00.0","2020-12-31 00:00:00.0","2019-12-01 00:00:00.0","2020-12-31 00:00:00.0","마포구"
"자체","S191111211511733577","시설대관","녹화/촬영","예약일시중지","2020년 녹화1-망원","유료","망원한강공원","제한없음","http://yeyak.seoul.go.kr/reservation/view.web?rsvsvcid=S191111211511733577","37.55234431279685","126.89988648400843","2019-12-01 00:00:00.0","2020-12-31 00:00:00.0","2019-12-01 00:00:00.0","2020-12-31 00:00:00.0","마포구"
"자체","S191111211803889515","시설대관","녹화/촬영","예약일시중지","2020년 녹화2-망원","유료","망원한강공원","제한없음","http://yeyak.seoul.go.kr/reservation/view.web?rsvsvcid=S191111211803889515","37.55234431279685","126.89988648400843","2019-12-01 00:00:00.0","2020-12-31 00:00:00.0","2019-12-01 00:00:00.0","2020-12-31 00:00:00.0","마포구"
"자체","S191231094231195346","시설대관","강의실","예약일시중지","망원1동 주민센터 2층 소회의실(2020)","유료","망원1동주민센터 2층 소회의실","제한없음","http://yeyak.seoul.go.kr/reservation/view.web?rsvsvcid=S191231094231195346","37.55558899861207","126.90559061635899","2020-01-01 00:00:00.0","2020-12-31 00:00:00.0","2019-12-31 00:00:00.0","2020-12-31 23:59:00.0","마포구"
"자체","S191216122822548922","시설대관","기타","예약일시중지","대흥동자치회관 생활체육실(2020)","유료","마포구 대흥동자치회관 생활체육실","제한없음(서울시 관련시민-상세정보 확인)","http://yeyak.seoul.go.kr/reservation/view.web?rsvsvcid=S191216122822548922","37.55585054288168","126.94237181766061","2019-12-16 00:00:00.0","2020-12-31 00:00:00.0","2019-12-16 00:00:00.0","2020-12-31 00:00:00.0","마포구"
"자체","S191231160236588535","시설대관","다목적실","예약일시중지","용강동 자치회관 다목적실(2020)","유료","마포구 용강동자치회관","제한없음","http://yeyak.seoul.go.kr/reservation/view.web?rsvsvcid=S191231160236588535","37.54232497845849","126.94283484390463","2019-12-31 00:00:00.0","2020-12-31 00:00:00.0","2019-12-31 09:00:00.0","2020-12-29 18:00:00.0","마포구"
"자체","S200102095145447724","시설대관","강의실","예약일시중지","용강동 자치회관 2층 강의실(2020)","유료","마포구 용강동자치회관","제한없음","http://yeyak.seoul.go.kr/reservation/view.web?rsvsvcid=S200102095145447724","37.54232497845849","126.94283484390463","2020-01-01 00:00:00.0","2020-12-31 00:00:00.0","2020-01-01 09:00:00.0","2020-12-31 18:00:00.0","마포구"
"자체","S200102095712585197","시설대관","회의실","예약일시중지","용강동 자치회관 2층 회의실(2020)","유료","마포구 용강동자치회관","제한없음","http://yeyak.seoul.go.kr/reservation/view.web?rsvsvcid=S200102095712585197","37.54232497845849","126.94283484390463","2020-01-01 00:00:00.0","2020-12-31 00:00:00.0","2020-01-01 09:00:00.0","2020-12-31 18:00:00.0","마포구"