"서비스구분","서비스ID","대분류명","소분류명","서비스상태","서비스명","결제방법","장소명","서비스대상","바로가기URL","장소X좌표","장소Y좌표","서비스개시시작일시","서비스개시종료일시","접수시작일시","접수종료일시","지역명"
"자체","S191203134624627489","교육","체험/견학","접수중","친환경녹색캠퍼스 생태프로그램 운영","무료","서울시립대학교","제한없음","http://yeyak.seoul.go.kr/reservation/view.web?rsvsvcid=S191203134624627489","","","2020-04-01 00:00:00.0","2020-11-30 00:00:00.0","2020-04-01 09:00:00.0","2020-11-30 00:00:00.0","동대문구"
"자체","S191213104335659718","교육","체험/견학","접수중","어린이 단체 오감으로 즐기는 약초 교육 : 내 친구 약초 (2020 상반기)","유료(요금안내문의)","서울한방진흥센터","유아(1회차)","http://yeyak.seoul.go.kr/reservation/view.web?rsvsvcid=S191213104335659718","37.5805999642","127.037586191","2019-12-13 00:00:00.0","2020-06-30 00:00:00.0","2019-12-17 11:00:00.0","2020-06-30 16:00:00.0","동대문구"
"자체","S191213104847926941","교육","체험/견학","접수중","초등 학급단체교육 : 밥심클래스 (2020 상반기)","유료(요금안내문의)","서울한방진흥센터","어린이(초등 4~6학년)","http://yeyak.seoul.go.kr/reservation/view.web?rsvsvcid=S191213104847926941","37.5805999642","127.037586191","2019-12-17 00:00:00.0","2020-06-30 00:00:00.0","2019-12-17 11:00:00.0","2020-06-30 16:00:00.0","동대문구"
"자체","S191213105353486715","교육","체험/견학","접수중","중등학교 진로체험 연계 : 한방뷰티클럽 (2020 상반기)","유료(요금안내문의)","서울한방진흥센터","청소년(중 고등학생)","http://yeyak.seoul.go.kr/reservation/view.web?rsvsvcid=S191213105353486715","37.5805999642","127.037586191","2019-12-17 00:00:00.0","2020-06-30 00:00:00.0","2019-12-17 11:00:00.0","2020-06-30 16:00:00.0","동대문구"
"자체","S200401162815651800","교육","체험/견학","접수종료","2020년 동대문구 숲 해설 프로그램(평일 무료)","무료","배봉산근린공원","제한없음","http://yeyak.seoul.go.kr/reservation/view.web?rsvsvcid=S200401162815651800","","","2020-04-02 00:00:00.0","2020-11-30 00:00:00.0","2020-04-02 09:00:00.0","2020-04-08 19:00:00.0","동대문구"
"자체","S200503132143223325","교육","체험/견학","접수종료","2020년 동대문구 숲 해설 프로그램(평일 무료)","무료","배봉산근린공원","제한없음","http://yeyak.seoul.go.kr/reservation/view.web?rsvsvcid=S200503132143223325","","","2020-05-03 00:00:00.0","2020-12-31 00:00:00.0","2020-05-04 09:00:00.0","2020-12-31 19:00:00.0","동대문구"
"자체","S200527103407466846","교육","체험/견학","예약일시중지","(화~일) 2020년 5월 생활약선요리","유료(요금안내문의)","서울한방진흥센터","제한없음","http://yeyak.seoul.go.kr/reservation/view.web?rsvsvcid=S200527103407466846","37.5805999642","127.037586191","2020-05-27 00:00:00.0","2020-06-30 00:00:00.0","2020-05-27 00:00:00.0","2020-06-29 00:00:00.0","동대문구"
"자체","S200527173600861748","교육","체험/견학","예약일시중지","(화~일) 2020년 6월 생활약선요리","유료(요금안내문의)","서울한방진흥센터","제한없음","http://yeyak.seoul.go.kr/reservation/view.web?rsvsvcid=S200527173600861748","37.5805999642","127.037586191","2020-05-27 00:00:00.0","2020-06-30 00:00:00.0","2020-05-27 00:00:00.0","2020-06-29 00:00:00.0","동대문구"
"연계","SEED-141740","교육","취미레저","","문화원에서 하는 일","무료","","","http://dongdaemun.kccf.or.kr/home/main/school.php?mode=view&menuinfo_code=lecture&page=1&content_idx=98&keyword=&keyfield=","","","","","","","동대문구"
"연계","SEED-141739","교육","취미레저","","진도 북놀이 교실","무료","","","http://dongdaemun.kccf.or.kr/home/main/school.php?mode=view&menuinfo_code=lecture&page=1&content_idx=5181&keyword=&keyfield=","","","","","","","동대문구"
"연계","SEED-141731","교육","취미레저","","이현주 힐링 노래교실","무료","","","http://dongdaemun.kccf.or.kr/home/main/school.php?mode=view&menuinfo_code=lecture&page=1&content_idx=43162&keyword=&keyfield=","","","","","","","동대문구"
"연계","SEED-141732","교육","취미레저","","금동하 노래교실 - 노래하는 곳에","무료","","","http://dongdaemun.kccf.or.kr/home/main/school.php?mode=view&menuinfo_code=lecture&page=1&content_idx=43160&keyword=&keyfield=","","","","","","","동대문구"
"연계","SEED-141733","교육","취미레저","","경기민요 교실","무료","","","http://dongdaemun.kccf.or.kr/home/main/school.php?mode=view&menuinfo_code=lecture&page=1&content_idx=35101&keyword=&keyfield=","","","","","","","동대문구"
"연계","SEED-141734","교육","취미레저","","일본어 회화 교실 (중급)","무료","","","http://dongdaemun.kccf.or.kr/home/main/school.php?mode=view&menuinfo_code=lecture&page=1&content_idx=31589&keyword=&keyfield=","","","","","","","동대문구"
"연계","SEED-141735","교육","취미레저","","건강스포츠 교실 (모던 댄스)","무료","","","http://dongdaemun.kccf.or.kr/home/main/school.php?mode=view&menuinfo_code=lecture&page=1&content_idx=26419&keyword=&keyfield=","","","","","","","동대문구"
"연계","SEED-141736","교육","취미레저","","힐링 스트레칭 (요가)","무료","","","http://dongdaemun.kccf.or.kr/home/main/school.php?mode=view&menuinfo_code=lecture&page=1&content_idx=15101&keyword=&keyfield=","","","","","","","동대문구"
"연계","SEED-141737","교육","취미레저","","실용 무용 (스포츠댄스)","무료","","","http://dongdaemun.kccf.or.kr/home/main/school.php?mode=view&menuinfo_code=lecture&page=1&content_idx=13865&keyword=&keyfield=","","","","","","","동대문구"
"연계","SEED-141738","교육","취미레저","","한국무용(초급 중급 연구반)","무료","","","http://dongdaemun.kccf.or.kr/home/main/school.php?mode=view&menuinfo_code=lecture&page=1&content_idx=13864&keyword=&keyfield=","","","","","","","동대문구"